{
  "Autostart": {
    "Enable": "1",
    "ConfigName": "All",
    "DeviceName": "GPU",
    "WorkerName": ""
  },
  "Exclude": [
    "APIAuth",
    "APIPassword",
    "APIPort",
    "APIUser",
    "CPUMiningAffinity",
    "CPUMiningThreads",
    "DeviceName",
    "EnableServerConfig",
    "ExcludeDeviceName",
    "ExcludeServerConfigVars",
    "GPUMiningAffinity",
    "GroupName",
    "LinuxDisplay",
    "LinuxXAuthority",
    "MSIApath",
    "NVSMIpath",
    "Proxy",
    "RunMode",
    "ServerConfigName",
    "ServerName",
    "ServerPassword",
    "ServerPort",
    "ServerUser",
    "StartPaused",
    "StaticCPUMinerPort",
    "StaticGPUMinerPort"
  ],
  "Config": {
    "VersionCompatibility": "4.7.3.1",
    "RebootOnGPUFailure": "$RebootOnGPUFailure",
    "EnableMiningHeatControl": "$EnableMiningHeatControl",
    "SetupOnly": "$SetupOnly",
    "ExcludeMinersWithFee": "$ExcludeMinersWithFee",
    "BalanceUpdateMinutes": "$BalanceUpdateMinutes",
    "Wallet": "0x9ffded4cf417cbf75ed73e4bbe3ee7df30d9ec46",
    "WorkerName": "",
    "Proxy": "",
    "Region": "Asia",
    "Currency": "BTC,IDR",
    "PoolName": "2Miners",
    "ExcludePoolName": "",
    "MinerName": "lolminer",
    "ExcludeMinerName": "",
    "PreferMinerName": "",
    "PreferMinerMargin": 5.0,
    "Algorithm": "Etchash",
    "ExcludeAlgorithm": "",
    "DisableUnprofitableAlgolist": "1",
    "DisableUnprofitableCpuAlgolist": "1",
    "ExcludeCoin": "",
    "ExcludeCoinSymbol": "",
    "MiningMode": "combo",
    "MinComboOverSingleRatio": 0,
    "ShowPoolBalances": "1",
    "ShowPoolBalancesDetails": "1",
    "ShowPoolBalancesExcludedPools": "0",
    "ExcludeCoinsymbolBalances": "MAX,MUSIC",
    "ShowWalletBalances": "1",
    "WalletBalances": "",
    "ShowMinerWindow": "0",
    "FastestMinerOnly": "1",
    "EnableAlgorithmMapping": "1",
    "MiningHeatControl": "2",
    "MaxActivityDays": "2",
    "UIstyle": "lite",
    "UIsorting": "biased",
    "DeviceName": "GPU",
    "ExcludeDeviceName": "",
    "Interval": "60",
    "BenchmarkInterval": "60",
    "EnableFastlaneBenchmark": "1",
    "EnableFastlaneBenchmarkMissing": "1",
    "FastlaneBenchmarkTypeCPU": "max",
    "FastlaneBenchmarkTypeGPU": "max",
    "MinimumMiningIntervals": "1",
    "DisableExtendInterval": "1",
    "SwitchingPrevention": "2",
    "PoolSwitchingHysteresis": "2",
    "MinerSwitchingHysteresis": "2",
    "MaxRejectedShareRatio": 0.3,
    "MaxAllowedLuck": 3.0,
    "MaxTimeSinceLastBlock": "12h",
    "EnableFastSwitching": "0",
    "ForceStablePrice": "0",
    "Donate": 30,
    "Watchdog": "1",
    "ExcludeFromWatchdog": "",
    "IgnoreFees": "0",
    "DisableDualMining": "0",
    "EnableCheckMiningConflict": "0",
    "EnableEthashZombieMode": "0",
    "MSIAprofile": 0,
    "MSIApath": "C:\\Program Files (x86)\\MSI Afterburner\\MSIAfterburner.exe",
    "UseTimeSync": "1",
    "StaticCPUMinerPort": 0,
    "StaticGPUMinerPort": 0,
    "MiningPriorityCPU": -2,
    "MiningPriorityGPU": -1,
    "AutoexecPriority": -1,
    "PowerPrice": "0",
    "PowerOffsetPercent": "0",
    "PowerOffset": "0",
    "PowerPriceCurrency": "USD",
    "UsePowerPrice": "0",
    "FixedCostPerDay": "0",
    "CheckProfitability": "0",
    "EthPillEnable": "revB",
    "EthPillEnableMTP": "disable",
    "EnableOCProfiles": "0",
    "EnableOCVoltage": "0",
    "EnableOCLinuxSetAllPStates": "1",
    "EnableOCLinuxForcePState": "1",
    "EnableLinuxHeadless": "1",
    "LinuxDisplay": ":0",
    "LinuxXAuthority": "",
    "EnableMinersAsRoot": "1",
    "EnableAutoUpdate": "0",
    "EnableUpdateDuringPause": "0",
    "EnableUpdateWhenScheduled": "0",
    "EnableAutoAlgorithmAdd": "0",
    "EnableAutoBenchmark": "0",
    "EnableResetVega": "0",
    "Delay": "1",
    "APIport": 5555,
    "APIauth": "0",
    "APIuser": "jokogendeng",
    "APIpassword": "asucok",
    "APIthreads": "0",
    "EnableAutoMinerPorts": "1",
    "DisableMSIAmonitor": "0",
    "DisableAPI": "0",
    "DisableAsyncLoader": "0",
    "CPUMiningThreads": 4.0,
    "CPUMiningAffinity": "0xf",
    "EnableAutoAdjustAffinity": "0",
    "GPUMiningAffinity": "",
    "PoolDataWindow": "",
    "EnableErrorRatio": "1",
    "MaxErrorRatio": 1.5,
    "PoolStatAverage": "",
    "PoolStatAverageStable": "",
    "HashrateWeight": 20,
    "HashrateWeightStrength": 50,
    "PoolAccuracyWeight": 15,
    "MinerFaultToleranceGPU": 10,
    "MinerFaultToleranceCPU": 25,
    "ProfitSpikeProtection": "0",
    "DefaultPoolRegion": "asia,us,eu",
    "EnableMinerStatus": "1",
    "MinerStatusUrl": "https://rbminer.net",
    "MinerStatusKey": "b6ccbfd7-ab5e-4c88-b5ef-c6be57873fc7",
    "MinerStatusEmail": "",
    "PushOverUserKey": "",
    "MinerStatusMaxTemp": "90",
    "MinerStatusMaxCrashesPerHour": "5",
    "DiskMinGB": "5",
    "NVSMIpath": "C:\\Program Files\\NVIDIA Corporation\\NVSMI",
    "Quickstart": "1",
    "StartPaused": "0",
    "EnablePauseOnActivity": "0",
    "ResumeOnInactivitySeconds": 300,
    "RunMode": "standalone",
    "ServerName": "solomase.zapto.org",
    "ServerPort": 4000,
    "ServerUser": "solomase",
    "ServerPassword": "asuasu",
    "EnableServerConfig": "0",
    "EnableServerPools": "0",
    "GroupName": "as",
    "ServerConfigName": "config,coins,pools,algorithms,scheduler",
    "ExcludeServerConfigVars": "PoolName,MinerName,Algorithm,APIAuth,APIPassword,APIPort,APIUser,CPUMiningAffinity,CPUMiningThreads,DeviceName,EnableServerConfig,ExcludeDeviceName,ExcludeServerConfigVars,GPUMiningAffinity,GroupName,LinuxDisplay,LinuxXAuthority,MSIApath,NVSMIpath,Proxy,RunMode,ServerConfigName,ServerName,ServerPassword,ServerPort,ServerUser,StartPaused,WorkerName,StaticCPUMinerPort,StaticGPUMinerPort",
    "EnableServerExcludeList": "0",
    "LogLevel": "Info",
    "MaxLogfileDays": 0,
    "MaxDownloadfileDays": 0,
    "MaxCachefileDays": 0,
    "EnableMinerBackups": "0",
    "EnableKeepDownloads": "0",
    "EnableRestartComputer": "0",
    "EnableDebugMode": "0",
    "RestartComputerHours": 0.0,
    "SSL": "1"
  },
  "Pools": {
    "2Miners": {
      "ETH": "$ETH",
      "FIRO": "",
      "FIRO-Params": "",
      "Worker": "$WorkerName",
      "Penalty": "0",
      "Algorithm": "",
      "ExcludeAlgorithm": "",
      "CoinName": "",
      "ExcludeCoin": "",
      "CoinSymbol": "",
      "ExcludeCoinSymbol": "",
      "MinerName": "",
      "ExcludeMinerName": "",
      "FocusWallet": "",
      "AllowZero": "0",
      "EnableAutoCoin": "0",
      "EnablePostBlockMining": "0",
      "CoinSymbolPBM": "",
      "DataWindow": "",
      "StatAverage": "",
      "StatAverageStable": "",
      "MaxMarginOfError": "100",
      "SwitchingHysteresis": "",
      "MaxAllowedLuck": "",
      "MaxTimeSinceLastBlock": "",
      "Region": "",
      "SSL": ""
    },
    "2MinersSolo": {
      "FIRO": "",
      "FIRO-Params": "",
      "Worker": "$WorkerName",
      "Penalty": "0",
      "Algorithm": "",
      "ExcludeAlgorithm": "",
      "CoinName": "",
      "ExcludeCoin": "",
      "CoinSymbol": "",
      "ExcludeCoinSymbol": "",
      "MinerName": "",
      "ExcludeMinerName": "",
      "FocusWallet": "",
      "AllowZero": "0",
      "EnableAutoCoin": "0",
      "EnablePostBlockMining": "0",
      "CoinSymbolPBM": "",
      "DataWindow": "",
      "StatAverage": "",
      "StatAverageStable": "",
      "MaxMarginOfError": "100",
      "SwitchingHysteresis": "",
      "MaxAllowedLuck": "",
      "MaxTimeSinceLastBlock": "",
      "Region": "",
      "SSL": ""
    },
    "666Pool": {
      "PMEER": "",
      "PMEER-Params": "",
      "Worker": "$WorkerName",
      "Penalty": "0",
      "Algorithm": "",
      "ExcludeAlgorithm": "",
      "CoinName": "",
      "ExcludeCoin": "",
      "CoinSymbol": "",
      "ExcludeCoinSymbol": "",
      "MinerName": "",
      "ExcludeMinerName": "",
      "FocusWallet": "",
      "AllowZero": "0",
      "EnableAutoCoin": "0",
      "EnablePostBlockMining": "0",
      "CoinSymbolPBM": "",
      "DataWindow": "",
      "StatAverage": "",
      "StatAverageStable": "",
      "MaxMarginOfError": "100",
      "SwitchingHysteresis": "",
      "MaxAllowedLuck": "",
      "MaxTimeSinceLastBlock": "",
      "Region": "",
      "SSL": ""
    },
    "6Block": {
      "HNS": "",
      "HNS-Params": "",
      "Worker": "$WorkerName",
      "Penalty": "0",
      "Algorithm": "",
      "ExcludeAlgorithm": "",
      "CoinName": "",
      "ExcludeCoin": "",
      "CoinSymbol": "",
      "ExcludeCoinSymbol": "",
      "MinerName": "",
      "ExcludeMinerName": "",
      "FocusWallet": "",
      "AllowZero": "0",
      "EnableAutoCoin": "0",
      "EnablePostBlockMining": "0",
      "CoinSymbolPBM": "",
      "DataWindow": "",
      "StatAverage": "",
      "StatAverageStable": "",
      "MaxMarginOfError": "100",
      "SwitchingHysteresis": "",
      "MaxAllowedLuck": "",
      "MaxTimeSinceLastBlock": "",
      "Region": "",
      "SSL": ""
    },
    "Acepool": {
      "BEAM": "",
      "BEAM-Params": "",
      "XGM": "",
      "XGM-Params": "",
      "Worker": "$WorkerName",
      "Penalty": "0",
      "Algorithm": "",
      "ExcludeAlgorithm": "",
      "CoinName": "",
      "ExcludeCoin": "",
      "CoinSymbol": "",
      "ExcludeCoinSymbol": "",
      "MinerName": "",
      "ExcludeMinerName": "",
      "FocusWallet": "",
      "AllowZero": "0",
      "EnableAutoCoin": "0",
      "EnablePostBlockMining": "0",
      "CoinSymbolPBM": "",
      "DataWindow": "",
      "StatAverage": "",
      "StatAverageStable": "",
      "MaxMarginOfError": "100",
      "SwitchingHysteresis": "",
      "MaxAllowedLuck": "",
      "MaxTimeSinceLastBlock": "",
      "Region": "",
      "SSL": ""
    },
    "AHashPool": {
      "Penalty": 22,
      "BTC": "$Wallet",
      "BTC-Params": "",
      "Worker": "$WorkerName",
      "Algorithm": "",
      "ExcludeAlgorithm": "",
      "CoinName": "",
      "ExcludeCoin": "",
      "CoinSymbol": "",
      "ExcludeCoinSymbol": "",
      "MinerName": "",
      "ExcludeMinerName": "",
      "FocusWallet": "",
      "AllowZero": "0",
      "EnableAutoCoin": "0",
      "EnablePostBlockMining": "0",
      "CoinSymbolPBM": "",
      "DataWindow": "",
      "StatAverage": "",
      "StatAverageStable": "",
      "MaxMarginOfError": "100",
      "SwitchingHysteresis": "",
      "MaxAllowedLuck": "",
      "MaxTimeSinceLastBlock": "",
      "Region": "",
      "SSL": ""
    },
    "Aionmine": {
      "AION": "",
      "AION-Params": "",
      "Worker": "$WorkerName",
      "Penalty": "0",
      "Algorithm": "",
      "ExcludeAlgorithm": "",
      "CoinName": "",
      "ExcludeCoin": "",
      "CoinSymbol": "",
      "ExcludeCoinSymbol": "",
      "MinerName": "",
      "ExcludeMinerName": "",
      "FocusWallet": "",
      "AllowZero": "0",
      "EnableAutoCoin": "0",
      "EnablePostBlockMining": "0",
      "CoinSymbolPBM": "",
      "DataWindow": "",
      "StatAverage": "",
      "StatAverageStable": "",
      "MaxMarginOfError": "100",
      "SwitchingHysteresis": "",
      "MaxAllowedLuck": "",
      "MaxTimeSinceLastBlock": "",
      "Region": "",
      "SSL": ""
    },
    "BaikalMine": {
      "REOSC": "",
      "REOSC-Params": "",
      "Worker": "$WorkerName",
      "Penalty": "0",
      "Algorithm": "",
      "ExcludeAlgorithm": "",
      "CoinName": "",
      "ExcludeCoin": "",
      "CoinSymbol": "",
      "ExcludeCoinSymbol": "",
      "MinerName": "",
      "ExcludeMinerName": "",
      "FocusWallet": "",
      "AllowZero": "0",
      "EnableAutoCoin": "0",
      "EnablePostBlockMining": "0",
      "CoinSymbolPBM": "",
      "DataWindow": "",
      "StatAverage": "",
      "StatAverageStable": "",
      "MaxMarginOfError": "100",
      "SwitchingHysteresis": "",
      "MaxAllowedLuck": "",
      "MaxTimeSinceLastBlock": "",
      "Region": "",
      "SSL": ""
    },
    "BaikalMineSolo": {
      "REOSC": "",
      "REOSC-Params": "",
      "Worker": "$WorkerName",
      "Penalty": "0",
      "Algorithm": "",
      "ExcludeAlgorithm": "",
      "CoinName": "",
      "ExcludeCoin": "",
      "CoinSymbol": "",
      "ExcludeCoinSymbol": "",
      "MinerName": "",
      "ExcludeMinerName": "",
      "FocusWallet": "",
      "AllowZero": "0",
      "EnableAutoCoin": "0",
      "EnablePostBlockMining": "0",
      "CoinSymbolPBM": "",
      "DataWindow": "",
      "StatAverage": "",
      "StatAverageStable": "",
      "MaxMarginOfError": "100",
      "SwitchingHysteresis": "",
      "MaxAllowedLuck": "",
      "MaxTimeSinceLastBlock": "",
      "Region": "",
      "SSL": ""
    },
    "BeePool": {
      "ETH": "",
      "ETH-Params": "",
      "RVN": "",
      "RVN-Params": "",
      "Worker": "$WorkerName",
      "Penalty": "0",
      "Algorithm": "",
      "ExcludeAlgorithm": "",
      "CoinName": "",
      "ExcludeCoin": "",
      "CoinSymbol": "",
      "ExcludeCoinSymbol": "",
      "MinerName": "",
      "ExcludeMinerName": "",
      "FocusWallet": "",
      "AllowZero": "0",
      "EnableAutoCoin": "0",
      "EnablePostBlockMining": "0",
      "CoinSymbolPBM": "",
      "DataWindow": "",
      "StatAverage": "",
      "StatAverageStable": "",
      "MaxMarginOfError": "100",
      "SwitchingHysteresis": "",
      "MaxAllowedLuck": "",
      "MaxTimeSinceLastBlock": "",
      "Region": "",
      "SSL": ""
    },
    "Binance": {
      "API_Key": "",
      "API_Secret": "",
      "EnableShowWallets": "0",
      "ETH": "",
      "ETH-Params": "",
      "Worker": "$WorkerName",
      "Penalty": "0",
      "Algorithm": "",
      "ExcludeAlgorithm": "",
      "CoinName": "",
      "ExcludeCoin": "",
      "CoinSymbol": "",
      "ExcludeCoinSymbol": "",
      "MinerName": "",
      "ExcludeMinerName": "",
      "FocusWallet": "",
      "AllowZero": "0",
      "EnableAutoCoin": "0",
      "EnablePostBlockMining": "0",
      "CoinSymbolPBM": "",
      "DataWindow": "",
      "StatAverage": "",
      "StatAverageStable": "",
      "MaxMarginOfError": "100",
      "SwitchingHysteresis": "",
      "MaxAllowedLuck": "",
      "MaxTimeSinceLastBlock": "",
      "Region": "",
      "SSL": ""
    },
    "BlockMasters": {
      "Penalty": 50,
      "BTC": "$Wallet",
      "BTC-Params": "",
      "Worker": "$WorkerName",
      "Algorithm": "",
      "ExcludeAlgorithm": "",
      "CoinName": "",
      "ExcludeCoin": "",
      "CoinSymbol": "",
      "ExcludeCoinSymbol": "",
      "MinerName": "",
      "ExcludeMinerName": "",
      "FocusWallet": "",
      "AllowZero": "0",
      "EnableAutoCoin": "0",
      "EnablePostBlockMining": "0",
      "CoinSymbolPBM": "",
      "DataWindow": "",
      "StatAverage": "",
      "StatAverageStable": "",
      "MaxMarginOfError": "100",
      "SwitchingHysteresis": "",
      "MaxAllowedLuck": "",
      "MaxTimeSinceLastBlock": "",
      "Region": "",
      "SSL": ""
    },
    "BlockMastersCoins": {
      "Penalty": 50,
      "BTC": "$Wallet",
      "BTC-Params": "",
      "Worker": "$WorkerName",
      "Algorithm": "",
      "ExcludeAlgorithm": "",
      "CoinName": "",
      "ExcludeCoin": "",
      "CoinSymbol": "",
      "ExcludeCoinSymbol": "",
      "MinerName": "",
      "ExcludeMinerName": "",
      "FocusWallet": "",
      "AllowZero": "0",
      "EnableAutoCoin": "0",
      "EnablePostBlockMining": "0",
      "CoinSymbolPBM": "",
      "DataWindow": "",
      "StatAverage": "",
      "StatAverageStable": "",
      "MaxMarginOfError": "100",
      "SwitchingHysteresis": "",
      "MaxAllowedLuck": "",
      "MaxTimeSinceLastBlock": "",
      "Region": "",
      "SSL": ""
    },
    "Bsod": {
      "RVN": "",
      "RVN-Params": "",
      "SIN": "",
      "SIN-Params": "",
      "Worker": "$WorkerName",
      "Penalty": "0",
      "Algorithm": "",
      "ExcludeAlgorithm": "",
      "CoinName": "",
      "ExcludeCoin": "",
      "CoinSymbol": "",
      "ExcludeCoinSymbol": "",
      "MinerName": "",
      "ExcludeMinerName": "",
      "FocusWallet": "",
      "AllowZero": "0",
      "EnableAutoCoin": "0",
      "EnablePostBlockMining": "0",
      "CoinSymbolPBM": "",
      "DataWindow": "",
      "StatAverage": "",
      "StatAverageStable": "",
      "MaxMarginOfError": "100",
      "SwitchingHysteresis": "",
      "MaxAllowedLuck": "",
      "MaxTimeSinceLastBlock": "",
      "Region": "",
      "SSL": ""
    },
    "BsodParty": {
      "AllowZero": "1",
      "PartyPassword": "",
      "RVN": "",
      "RVN-Params": "",
      "SIN": "",
      "SIN-Params": "",
      "Worker": "$WorkerName",
      "Penalty": "0",
      "Algorithm": "",
      "ExcludeAlgorithm": "",
      "CoinName": "",
      "ExcludeCoin": "",
      "CoinSymbol": "",
      "ExcludeCoinSymbol": "",
      "MinerName": "",
      "ExcludeMinerName": "",
      "FocusWallet": "",
      "EnableAutoCoin": "0",
      "EnablePostBlockMining": "0",
      "CoinSymbolPBM": "",
      "DataWindow": "",
      "StatAverage": "",
      "StatAverageStable": "",
      "MaxMarginOfError": "100",
      "SwitchingHysteresis": "",
      "MaxAllowedLuck": "",
      "MaxTimeSinceLastBlock": "",
      "Region": "",
      "SSL": ""
    },
    "BsodSolo": {
      "AllowZero": "1",
      "RVN": "",
      "RVN-Params": "",
      "SIN": "",
      "SIN-Params": "",
      "Worker": "$WorkerName",
      "Penalty": "0",
      "Algorithm": "",
      "ExcludeAlgorithm": "",
      "CoinName": "",
      "ExcludeCoin": "",
      "CoinSymbol": "",
      "ExcludeCoinSymbol": "",
      "MinerName": "",
      "ExcludeMinerName": "",
      "FocusWallet": "",
      "EnableAutoCoin": "0",
      "EnablePostBlockMining": "0",
      "CoinSymbolPBM": "",
      "DataWindow": "",
      "StatAverage": "",
      "StatAverageStable": "",
      "MaxMarginOfError": "100",
      "SwitchingHysteresis": "",
      "MaxAllowedLuck": "",
      "MaxTimeSinceLastBlock": "",
      "Region": "",
      "SSL": ""
    },
    "BtcPrivate": {
      "BTCP": "",
      "BTCP-Params": "",
      "Worker": "$WorkerName",
      "Penalty": "0",
      "Algorithm": "",
      "ExcludeAlgorithm": "",
      "CoinName": "",
      "ExcludeCoin": "",
      "CoinSymbol": "",
      "ExcludeCoinSymbol": "",
      "MinerName": "",
      "ExcludeMinerName": "",
      "FocusWallet": "",
      "AllowZero": "0",
      "EnableAutoCoin": "0",
      "EnablePostBlockMining": "0",
      "CoinSymbolPBM": "",
      "DataWindow": "",
      "StatAverage": "",
      "StatAverageStable": "",
      "MaxMarginOfError": "100",
      "SwitchingHysteresis": "",
      "MaxAllowedLuck": "",
      "MaxTimeSinceLastBlock": "",
      "Region": "",
      "SSL": ""
    },
    "Cortexmint": {
      "CTXC": "",
      "CTXC-Params": "",
      "Worker": "$WorkerName",
      "Penalty": "0",
      "Algorithm": "",
      "ExcludeAlgorithm": "",
      "CoinName": "",
      "ExcludeCoin": "",
      "CoinSymbol": "",
      "ExcludeCoinSymbol": "",
      "MinerName": "",
      "ExcludeMinerName": "",
      "FocusWallet": "",
      "AllowZero": "0",
      "EnableAutoCoin": "0",
      "EnablePostBlockMining": "0",
      "CoinSymbolPBM": "",
      "DataWindow": "",
      "StatAverage": "",
      "StatAverageStable": "",
      "MaxMarginOfError": "100",
      "SwitchingHysteresis": "",
      "MaxAllowedLuck": "",
      "MaxTimeSinceLastBlock": "",
      "Region": "",
      "SSL": ""
    },
    "CpuPool": {
      "CPU": "",
      "CPU-Params": "",
      "MBC": "",
      "MBC-Params": "",
      "Worker": "$WorkerName",
      "Penalty": "0",
      "Algorithm": "",
      "ExcludeAlgorithm": "",
      "CoinName": "",
      "ExcludeCoin": "",
      "CoinSymbol": "",
      "ExcludeCoinSymbol": "",
      "MinerName": "",
      "ExcludeMinerName": "",
      "FocusWallet": "",
      "AllowZero": "0",
      "EnableAutoCoin": "0",
      "EnablePostBlockMining": "0",
      "CoinSymbolPBM": "",
      "DataWindow": "",
      "StatAverage": "",
      "StatAverageStable": "",
      "MaxMarginOfError": "100",
      "SwitchingHysteresis": "",
      "MaxAllowedLuck": "",
      "MaxTimeSinceLastBlock": "",
      "Region": "",
      "SSL": ""
    },
    "EthashPool": {
      "ETC": "",
      "ETC-Params": "",
      "ETH": "",
      "ETH-Params": "",
      "ETP": "",
      "ETP-Params": "",
      "Worker": "$WorkerName",
      "Penalty": "0",
      "Algorithm": "",
      "ExcludeAlgorithm": "",
      "CoinName": "",
      "ExcludeCoin": "",
      "CoinSymbol": "",
      "ExcludeCoinSymbol": "",
      "MinerName": "",
      "ExcludeMinerName": "",
      "FocusWallet": "",
      "AllowZero": "0",
      "EnableAutoCoin": "0",
      "EnablePostBlockMining": "0",
      "CoinSymbolPBM": "",
      "DataWindow": "",
      "StatAverage": "",
      "StatAverageStable": "",
      "MaxMarginOfError": "100",
      "SwitchingHysteresis": "",
      "MaxAllowedLuck": "",
      "MaxTimeSinceLastBlock": "",
      "Region": "",
      "SSL": ""
    },
    "Ethermine": {
      "ETH": "",
      "ETH-Params": "",
      "Worker": "$WorkerName",
      "Penalty": "0",
      "Algorithm": "",
      "ExcludeAlgorithm": "",
      "CoinName": "",
      "ExcludeCoin": "",
      "CoinSymbol": "",
      "ExcludeCoinSymbol": "",
      "MinerName": "",
      "ExcludeMinerName": "",
      "FocusWallet": "",
      "AllowZero": "0",
      "EnableAutoCoin": "0",
      "EnablePostBlockMining": "0",
      "CoinSymbolPBM": "",
      "DataWindow": "",
      "StatAverage": "",
      "StatAverageStable": "",
      "MaxMarginOfError": "100",
      "SwitchingHysteresis": "",
      "MaxAllowedLuck": "",
      "MaxTimeSinceLastBlock": "",
      "Region": "",
      "SSL": ""
    },
    "Ezil": {
      "EnableNanominerDual": "1",
      "ETH": "",
      "ETH-Params": "",
      "ETC": "",
      "ETC-Params": "",
      "ZIL": "",
      "ZIL-Params": "",
      "Worker": "$WorkerName",
      "Penalty": "0",
      "Algorithm": "",
      "ExcludeAlgorithm": "",
      "CoinName": "",
      "ExcludeCoin": "",
      "CoinSymbol": "",
      "ExcludeCoinSymbol": "",
      "MinerName": "",
      "ExcludeMinerName": "",
      "FocusWallet": "",
      "AllowZero": "0",
      "EnableAutoCoin": "0",
      "EnablePostBlockMining": "0",
      "CoinSymbolPBM": "",
      "DataWindow": "",
      "StatAverage": "",
      "StatAverageStable": "",
      "MaxMarginOfError": "100",
      "SwitchingHysteresis": "",
      "MaxAllowedLuck": "",
      "MaxTimeSinceLastBlock": "",
      "Region": "",
      "SSL": ""
    },
    "F2pool": {
      "UserName": "",
      "ETH": "",
      "ETH-Params": "",
      "GRIN": "",
      "GRIN-Params": "",
      "BEAM": "",
      "BEAM-Params": "",
      "XMR": "",
      "XMR-Params": "",
      "FIRO": "",
      "FIRO-Params": "",
      "Worker": "$WorkerName",
      "Penalty": "0",
      "Algorithm": "",
      "ExcludeAlgorithm": "",
      "CoinName": "",
      "ExcludeCoin": "",
      "CoinSymbol": "",
      "ExcludeCoinSymbol": "",
      "MinerName": "",
      "ExcludeMinerName": "",
      "FocusWallet": "",
      "AllowZero": "0",
      "EnableAutoCoin": "0",
      "EnablePostBlockMining": "0",
      "CoinSymbolPBM": "",
      "DataWindow": "",
      "StatAverage": "",
      "StatAverageStable": "",
      "MaxMarginOfError": "100",
      "SwitchingHysteresis": "",
      "MaxAllowedLuck": "",
      "MaxTimeSinceLastBlock": "",
      "Region": "",
      "SSL": ""
    },
    "FairPool": {
      "XWP": "",
      "XWP-Params": "",
      "Worker": "$WorkerName",
      "Penalty": "0",
      "Algorithm": "",
      "ExcludeAlgorithm": "",
      "CoinName": "",
      "ExcludeCoin": "",
      "CoinSymbol": "",
      "ExcludeCoinSymbol": "",
      "MinerName": "",
      "ExcludeMinerName": "",
      "FocusWallet": "",
      "AllowZero": "0",
      "EnableAutoCoin": "0",
      "EnablePostBlockMining": "0",
      "CoinSymbolPBM": "",
      "DataWindow": "",
      "StatAverage": "",
      "StatAverageStable": "",
      "MaxMarginOfError": "100",
      "SwitchingHysteresis": "",
      "MaxAllowedLuck": "",
      "MaxTimeSinceLastBlock": "",
      "Region": "",
      "SSL": ""
    },
    "FlexPool": {
      "ETH": "",
      "ETH-Params": "",
      "Worker": "$WorkerName",
      "Penalty": "0",
      "Algorithm": "",
      "ExcludeAlgorithm": "",
      "CoinName": "",
      "ExcludeCoin": "",
      "CoinSymbol": "",
      "ExcludeCoinSymbol": "",
      "MinerName": "",
      "ExcludeMinerName": "",
      "FocusWallet": "",
      "AllowZero": "0",
      "EnableAutoCoin": "0",
      "EnablePostBlockMining": "0",
      "CoinSymbolPBM": "",
      "DataWindow": "",
      "StatAverage": "",
      "StatAverageStable": "",
      "MaxMarginOfError": "100",
      "SwitchingHysteresis": "",
      "MaxAllowedLuck": "",
      "MaxTimeSinceLastBlock": "",
      "Region": "",
      "SSL": ""
    },
    "FluxPools": {
      "FLUX": "",
      "FLUX-Params": "",
      "FIRO": "",
      "FIRO-Params": "",
      "TCR": "",
      "TCR-Params": "",
      "Worker": "$WorkerName",
      "Penalty": "0",
      "Algorithm": "",
      "ExcludeAlgorithm": "",
      "CoinName": "",
      "ExcludeCoin": "",
      "CoinSymbol": "",
      "ExcludeCoinSymbol": "",
      "MinerName": "",
      "ExcludeMinerName": "",
      "FocusWallet": "",
      "AllowZero": "0",
      "EnableAutoCoin": "0",
      "EnablePostBlockMining": "0",
      "CoinSymbolPBM": "",
      "DataWindow": "",
      "StatAverage": "",
      "StatAverageStable": "",
      "MaxMarginOfError": "100",
      "SwitchingHysteresis": "",
      "MaxAllowedLuck": "",
      "MaxTimeSinceLastBlock": "",
      "Region": "",
      "SSL": ""
    },
    "FlyPool": {
      "BEAM": "",
      "BEAM-Params": "",
      "YEC": "",
      "YEC-Params": "",
      "Worker": "$WorkerName",
      "Penalty": "0",
      "Algorithm": "",
      "ExcludeAlgorithm": "",
      "CoinName": "",
      "ExcludeCoin": "",
      "CoinSymbol": "",
      "ExcludeCoinSymbol": "",
      "MinerName": "",
      "ExcludeMinerName": "",
      "FocusWallet": "",
      "AllowZero": "0",
      "EnableAutoCoin": "0",
      "EnablePostBlockMining": "0",
      "CoinSymbolPBM": "",
      "DataWindow": "",
      "StatAverage": "",
      "StatAverageStable": "",
      "MaxMarginOfError": "100",
      "SwitchingHysteresis": "",
      "MaxAllowedLuck": "",
      "MaxTimeSinceLastBlock": "",
      "Region": "",
      "SSL": ""
    },
    "GosCx": {
      "GIN": "",
      "GIN-Params": "",
      "Worker": "$WorkerName",
      "Penalty": "0",
      "Algorithm": "",
      "ExcludeAlgorithm": "",
      "CoinName": "",
      "ExcludeCoin": "",
      "CoinSymbol": "",
      "ExcludeCoinSymbol": "",
      "MinerName": "",
      "ExcludeMinerName": "",
      "FocusWallet": "",
      "AllowZero": "0",
      "EnableAutoCoin": "0",
      "EnablePostBlockMining": "0",
      "CoinSymbolPBM": "",
      "DataWindow": "",
      "StatAverage": "",
      "StatAverageStable": "",
      "MaxMarginOfError": "100",
      "SwitchingHysteresis": "",
      "MaxAllowedLuck": "",
      "MaxTimeSinceLastBlock": "",
      "Region": "",
      "SSL": ""
    },
    "GosCxParty": {
      "AllowZero": "1",
      "PartyPassword": "",
      "GIN": "",
      "GIN-Params": "",
      "Worker": "$WorkerName",
      "Penalty": "0",
      "Algorithm": "",
      "ExcludeAlgorithm": "",
      "CoinName": "",
      "ExcludeCoin": "",
      "CoinSymbol": "",
      "ExcludeCoinSymbol": "",
      "MinerName": "",
      "ExcludeMinerName": "",
      "FocusWallet": "",
      "EnableAutoCoin": "0",
      "EnablePostBlockMining": "0",
      "CoinSymbolPBM": "",
      "DataWindow": "",
      "StatAverage": "",
      "StatAverageStable": "",
      "MaxMarginOfError": "100",
      "SwitchingHysteresis": "",
      "MaxAllowedLuck": "",
      "MaxTimeSinceLastBlock": "",
      "Region": "",
      "SSL": ""
    },
    "GosCxSolo": {
      "AllowZero": "1",
      "GIN": "",
      "GIN-Params": "",
      "Worker": "$WorkerName",
      "Penalty": "0",
      "Algorithm": "",
      "ExcludeAlgorithm": "",
      "CoinName": "",
      "ExcludeCoin": "",
      "CoinSymbol": "",
      "ExcludeCoinSymbol": "",
      "MinerName": "",
      "ExcludeMinerName": "",
      "FocusWallet": "",
      "EnableAutoCoin": "0",
      "EnablePostBlockMining": "0",
      "CoinSymbolPBM": "",
      "DataWindow": "",
      "StatAverage": "",
      "StatAverageStable": "",
      "MaxMarginOfError": "100",
      "SwitchingHysteresis": "",
      "MaxAllowedLuck": "",
      "MaxTimeSinceLastBlock": "",
      "Region": "",
      "SSL": ""
    },
    "Grinmint": {
      "Password": "x",
      "GRIN": "",
      "GRIN-Params": "",
      "Worker": "$WorkerName",
      "Penalty": "0",
      "Algorithm": "",
      "ExcludeAlgorithm": "",
      "CoinName": "",
      "ExcludeCoin": "",
      "CoinSymbol": "",
      "ExcludeCoinSymbol": "",
      "MinerName": "",
      "ExcludeMinerName": "",
      "FocusWallet": "",
      "AllowZero": "0",
      "EnableAutoCoin": "0",
      "EnablePostBlockMining": "0",
      "CoinSymbolPBM": "",
      "DataWindow": "",
      "StatAverage": "",
      "StatAverageStable": "",
      "MaxMarginOfError": "100",
      "SwitchingHysteresis": "",
      "MaxAllowedLuck": "",
      "MaxTimeSinceLastBlock": "",
      "Region": "",
      "SSL": ""
    },
    "HashCity": {
      "XMR": "",
      "XMR-Params": "",
      "Worker": "$WorkerName",
      "Penalty": "0",
      "Algorithm": "",
      "ExcludeAlgorithm": "",
      "CoinName": "",
      "ExcludeCoin": "",
      "CoinSymbol": "",
      "ExcludeCoinSymbol": "",
      "MinerName": "",
      "ExcludeMinerName": "",
      "FocusWallet": "",
      "AllowZero": "0",
      "EnableAutoCoin": "0",
      "EnablePostBlockMining": "0",
      "CoinSymbolPBM": "",
      "DataWindow": "",
      "StatAverage": "",
      "StatAverageStable": "",
      "MaxMarginOfError": "100",
      "SwitchingHysteresis": "",
      "MaxAllowedLuck": "",
      "MaxTimeSinceLastBlock": "",
      "Region": "",
      "SSL": ""
    },
    "Hashcryptos": {
      "BTC": "$Wallet",
      "BTC-Params": "",
      "Worker": "$WorkerName",
      "Penalty": "0",
      "Algorithm": "",
      "ExcludeAlgorithm": "",
      "CoinName": "",
      "ExcludeCoin": "",
      "CoinSymbol": "",
      "ExcludeCoinSymbol": "",
      "MinerName": "",
      "ExcludeMinerName": "",
      "FocusWallet": "",
      "AllowZero": "0",
      "EnableAutoCoin": "0",
      "EnablePostBlockMining": "0",
      "CoinSymbolPBM": "",
      "DataWindow": "",
      "StatAverage": "",
      "StatAverageStable": "",
      "MaxMarginOfError": "100",
      "SwitchingHysteresis": "",
      "MaxAllowedLuck": "",
      "MaxTimeSinceLastBlock": "",
      "Region": "",
      "SSL": ""
    },
    "Hashpool": {
      "TRB": "",
      "TRB-Params": "",
      "HNS": "",
      "HNS-Params": "",
      "CKB": "",
      "CKB-Params": "",
      "Worker": "$WorkerName",
      "Penalty": "0",
      "Algorithm": "",
      "ExcludeAlgorithm": "",
      "CoinName": "",
      "ExcludeCoin": "",
      "CoinSymbol": "",
      "ExcludeCoinSymbol": "",
      "MinerName": "",
      "ExcludeMinerName": "",
      "FocusWallet": "",
      "AllowZero": "0",
      "EnableAutoCoin": "0",
      "EnablePostBlockMining": "0",
      "CoinSymbolPBM": "",
      "DataWindow": "",
      "StatAverage": "",
      "StatAverageStable": "",
      "MaxMarginOfError": "100",
      "SwitchingHysteresis": "",
      "MaxAllowedLuck": "",
      "MaxTimeSinceLastBlock": "",
      "Region": "",
      "SSL": ""
    },
    "HashVault": {
      "XMR": "",
      "XMR-Params": "",
      "Worker": "$WorkerName",
      "Penalty": "0",
      "Algorithm": "",
      "ExcludeAlgorithm": "",
      "CoinName": "",
      "ExcludeCoin": "",
      "CoinSymbol": "",
      "ExcludeCoinSymbol": "",
      "MinerName": "",
      "ExcludeMinerName": "",
      "FocusWallet": "",
      "AllowZero": "0",
      "EnableAutoCoin": "0",
      "EnablePostBlockMining": "0",
      "CoinSymbolPBM": "",
      "DataWindow": "",
      "StatAverage": "",
      "StatAverageStable": "",
      "MaxMarginOfError": "100",
      "SwitchingHysteresis": "",
      "MaxAllowedLuck": "",
      "MaxTimeSinceLastBlock": "",
      "Region": "",
      "SSL": ""
    },
    "Hellominer": {
      "RVN": "",
      "RVN-Params": "",
      "XWP": "",
      "XWP-Params": "",
      "Worker": "$WorkerName",
      "Penalty": "0",
      "Algorithm": "",
      "ExcludeAlgorithm": "",
      "CoinName": "",
      "ExcludeCoin": "",
      "CoinSymbol": "",
      "ExcludeCoinSymbol": "",
      "MinerName": "",
      "ExcludeMinerName": "",
      "FocusWallet": "",
      "AllowZero": "0",
      "EnableAutoCoin": "0",
      "EnablePostBlockMining": "0",
      "CoinSymbolPBM": "",
      "DataWindow": "",
      "StatAverage": "",
      "StatAverageStable": "",
      "MaxMarginOfError": "100",
      "SwitchingHysteresis": "",
      "MaxAllowedLuck": "",
      "MaxTimeSinceLastBlock": "",
      "Region": "",
      "SSL": ""
    },
    "HeroMiners": {
      "XWP": "",
      "XWP-Params": "",
      "Worker": "$WorkerName",
      "Penalty": "0",
      "Algorithm": "",
      "ExcludeAlgorithm": "",
      "CoinName": "",
      "ExcludeCoin": "",
      "CoinSymbol": "",
      "ExcludeCoinSymbol": "",
      "MinerName": "",
      "ExcludeMinerName": "",
      "FocusWallet": "",
      "AllowZero": "0",
      "EnableAutoCoin": "0",
      "EnablePostBlockMining": "0",
      "CoinSymbolPBM": "",
      "DataWindow": "",
      "StatAverage": "",
      "StatAverageStable": "",
      "MaxMarginOfError": "100",
      "SwitchingHysteresis": "",
      "MaxAllowedLuck": "",
      "MaxTimeSinceLastBlock": "",
      "Region": "",
      "SSL": ""
    },
    "Hiveon": {
      "ETH": "",
      "ETH-Params": "",
      "ETC": "",
      "ETC-Params": "",
      "Worker": "$WorkerName",
      "Penalty": "0",
      "Algorithm": "",
      "ExcludeAlgorithm": "",
      "CoinName": "",
      "ExcludeCoin": "",
      "CoinSymbol": "",
      "ExcludeCoinSymbol": "",
      "MinerName": "",
      "ExcludeMinerName": "",
      "FocusWallet": "",
      "AllowZero": "0",
      "EnableAutoCoin": "0",
      "EnablePostBlockMining": "0",
      "CoinSymbolPBM": "",
      "DataWindow": "",
      "StatAverage": "",
      "StatAverageStable": "",
      "MaxMarginOfError": "100",
      "SwitchingHysteresis": "",
      "MaxAllowedLuck": "",
      "MaxTimeSinceLastBlock": "",
      "Region": "",
      "SSL": ""
    },
    "Icemining": {
      "SIN": "",
      "SIN-Params": "",
      "MWC": "",
      "MWC-Params": "",
      "Worker": "$WorkerName",
      "Penalty": "0",
      "Algorithm": "",
      "ExcludeAlgorithm": "",
      "CoinName": "",
      "ExcludeCoin": "",
      "CoinSymbol": "",
      "ExcludeCoinSymbol": "",
      "MinerName": "",
      "ExcludeMinerName": "",
      "FocusWallet": "",
      "AllowZero": "0",
      "EnableAutoCoin": "0",
      "EnablePostBlockMining": "0",
      "CoinSymbolPBM": "",
      "DataWindow": "",
      "StatAverage": "",
      "StatAverageStable": "",
      "MaxMarginOfError": "100",
      "SwitchingHysteresis": "",
      "MaxAllowedLuck": "",
      "MaxTimeSinceLastBlock": "",
      "Region": "",
      "SSL": ""
    },
    "LeafPool": {
      "BEAM": "",
      "BEAM-Params": "",
      "Worker": "$WorkerName",
      "Penalty": "0",
      "Algorithm": "",
      "ExcludeAlgorithm": "",
      "CoinName": "",
      "ExcludeCoin": "",
      "CoinSymbol": "",
      "ExcludeCoinSymbol": "",
      "MinerName": "",
      "ExcludeMinerName": "",
      "FocusWallet": "",
      "AllowZero": "0",
      "EnableAutoCoin": "0",
      "EnablePostBlockMining": "0",
      "CoinSymbolPBM": "",
      "DataWindow": "",
      "StatAverage": "",
      "StatAverageStable": "",
      "MaxMarginOfError": "100",
      "SwitchingHysteresis": "",
      "MaxAllowedLuck": "",
      "MaxTimeSinceLastBlock": "",
      "Region": "",
      "SSL": ""
    },
    "LuckPool": {
      "VRSC": "$VRSC",
      "VRSC-Params": "",
      "YEC": "",
      "YEC-Params": "",
      "Worker": "$WorkerName",
      "Penalty": "0",
      "Algorithm": "",
      "ExcludeAlgorithm": "",
      "CoinName": "",
      "ExcludeCoin": "",
      "CoinSymbol": "",
      "ExcludeCoinSymbol": "",
      "MinerName": "",
      "ExcludeMinerName": "",
      "FocusWallet": "",
      "AllowZero": "0",
      "EnableAutoCoin": "0",
      "EnablePostBlockMining": "0",
      "CoinSymbolPBM": "",
      "DataWindow": "",
      "StatAverage": "",
      "StatAverageStable": "",
      "MaxMarginOfError": "100",
      "SwitchingHysteresis": "",
      "MaxAllowedLuck": "",
      "MaxTimeSinceLastBlock": "",
      "Region": "",
      "SSL": ""
    },
    "LuckyPool": {
      "XWP": "",
      "XWP-Params": "",
      "Worker": "$WorkerName",
      "Penalty": "0",
      "Algorithm": "",
      "ExcludeAlgorithm": "",
      "CoinName": "",
      "ExcludeCoin": "",
      "CoinSymbol": "",
      "ExcludeCoinSymbol": "",
      "MinerName": "",
      "ExcludeMinerName": "",
      "FocusWallet": "",
      "AllowZero": "0",
      "EnableAutoCoin": "0",
      "EnablePostBlockMining": "0",
      "CoinSymbolPBM": "",
      "DataWindow": "",
      "StatAverage": "",
      "StatAverageStable": "",
      "MaxMarginOfError": "100",
      "SwitchingHysteresis": "",
      "MaxAllowedLuck": "",
      "MaxTimeSinceLastBlock": "",
      "Region": "",
      "SSL": ""
    },
    "Luxor": {
      "User": "",
      "ARRR": "",
      "ARRR-Params": "",
      "Worker": "$WorkerName",
      "Penalty": "0",
      "Algorithm": "",
      "ExcludeAlgorithm": "",
      "CoinName": "",
      "ExcludeCoin": "",
      "CoinSymbol": "",
      "ExcludeCoinSymbol": "",
      "MinerName": "",
      "ExcludeMinerName": "",
      "FocusWallet": "",
      "AllowZero": "0",
      "EnableAutoCoin": "0",
      "EnablePostBlockMining": "0",
      "CoinSymbolPBM": "",
      "DataWindow": "",
      "StatAverage": "",
      "StatAverageStable": "",
      "MaxMarginOfError": "100",
      "SwitchingHysteresis": "",
      "MaxAllowedLuck": "",
      "MaxTimeSinceLastBlock": "",
      "Region": "",
      "SSL": ""
    },
    "MinerRocks": {
      "XMR": "",
      "XMR-Params": "",
      "Worker": "$WorkerName",
      "Penalty": "0",
      "Algorithm": "",
      "ExcludeAlgorithm": "",
      "CoinName": "",
      "ExcludeCoin": "",
      "CoinSymbol": "",
      "ExcludeCoinSymbol": "",
      "MinerName": "",
      "ExcludeMinerName": "",
      "FocusWallet": "",
      "AllowZero": "0",
      "EnableAutoCoin": "0",
      "EnablePostBlockMining": "0",
      "CoinSymbolPBM": "",
      "DataWindow": "",
      "StatAverage": "",
      "StatAverageStable": "",
      "MaxMarginOfError": "100",
      "SwitchingHysteresis": "",
      "MaxAllowedLuck": "",
      "MaxTimeSinceLastBlock": "",
      "Region": "",
      "SSL": ""
    },
    "Minexmr": {
      "XMR": "",
      "XMR-Params": "",
      "Worker": "$WorkerName",
      "Penalty": "0",
      "Algorithm": "",
      "ExcludeAlgorithm": "",
      "CoinName": "",
      "ExcludeCoin": "",
      "CoinSymbol": "",
      "ExcludeCoinSymbol": "",
      "MinerName": "",
      "ExcludeMinerName": "",
      "FocusWallet": "",
      "AllowZero": "0",
      "EnableAutoCoin": "0",
      "EnablePostBlockMining": "0",
      "CoinSymbolPBM": "",
      "DataWindow": "",
      "StatAverage": "",
      "StatAverageStable": "",
      "MaxMarginOfError": "100",
      "SwitchingHysteresis": "",
      "MaxAllowedLuck": "",
      "MaxTimeSinceLastBlock": "",
      "Region": "",
      "SSL": ""
    },
    "MiningDutch": {
      "User": "",
      "API_ID": "",
      "API_Key": "",
      "AECurrency": "BTC",
      "Penalty": 3,
      "Worker": "$WorkerName",
      "Algorithm": "",
      "ExcludeAlgorithm": "",
      "CoinName": "",
      "ExcludeCoin": "",
      "CoinSymbol": "",
      "ExcludeCoinSymbol": "",
      "MinerName": "",
      "ExcludeMinerName": "",
      "FocusWallet": "",
      "AllowZero": "0",
      "EnableAutoCoin": "0",
      "EnablePostBlockMining": "0",
      "CoinSymbolPBM": "",
      "DataWindow": "",
      "StatAverage": "",
      "StatAverageStable": "",
      "MaxMarginOfError": "100",
      "SwitchingHysteresis": "",
      "MaxAllowedLuck": "",
      "MaxTimeSinceLastBlock": "",
      "Region": "",
      "SSL": ""
    },
    "MiningDutchCoins": {
      "User": "",
      "API_ID": "",
      "API_Key": "",
      "AECurrency": "BTC",
      "Penalty": 3,
      "GLT": "",
      "GLT-Params": "",
      "Worker": "$WorkerName",
      "Algorithm": "",
      "ExcludeAlgorithm": "",
      "CoinName": "",
      "ExcludeCoin": "",
      "CoinSymbol": "",
      "ExcludeCoinSymbol": "",
      "MinerName": "",
      "ExcludeMinerName": "",
      "FocusWallet": "",
      "AllowZero": "0",
      "EnableAutoCoin": "0",
      "EnablePostBlockMining": "0",
      "CoinSymbolPBM": "",
      "DataWindow": "",
      "StatAverage": "",
      "StatAverageStable": "",
      "MaxMarginOfError": "100",
      "SwitchingHysteresis": "",
      "MaxAllowedLuck": "",
      "MaxTimeSinceLastBlock": "",
      "Region": "",
      "SSL": ""
    },
    "MiningPoolHub": {
      "AECurrency": "BTC",
      "Penalty": 12,
      "Worker": "$WorkerName",
      "Algorithm": "",
      "ExcludeAlgorithm": "",
      "CoinName": "",
      "ExcludeCoin": "",
      "CoinSymbol": "",
      "ExcludeCoinSymbol": "",
      "MinerName": "",
      "ExcludeMinerName": "",
      "FocusWallet": "",
      "AllowZero": "0",
      "EnableAutoCoin": "0",
      "EnablePostBlockMining": "0",
      "CoinSymbolPBM": "",
      "DataWindow": "",
      "StatAverage": "",
      "StatAverageStable": "",
      "MaxMarginOfError": "100",
      "SwitchingHysteresis": "",
      "MaxAllowedLuck": "",
      "MaxTimeSinceLastBlock": "",
      "Region": "",
      "SSL": "",
      "User": "",
      "API_ID": "",
      "API_Key": ""
    },
    "MiningPoolHubCoins": {
      "AECurrency": "BTC",
      "Worker": "$WorkerName",
      "Penalty": "0",
      "Algorithm": "",
      "ExcludeAlgorithm": "",
      "CoinName": "",
      "ExcludeCoin": "",
      "CoinSymbol": "",
      "ExcludeCoinSymbol": "",
      "MinerName": "",
      "ExcludeMinerName": "",
      "FocusWallet": "",
      "AllowZero": "0",
      "EnableAutoCoin": "0",
      "EnablePostBlockMining": "0",
      "CoinSymbolPBM": "",
      "DataWindow": "",
      "StatAverage": "",
      "StatAverageStable": "",
      "MaxMarginOfError": "100",
      "SwitchingHysteresis": "",
      "MaxAllowedLuck": "",
      "MaxTimeSinceLastBlock": "",
      "Region": "",
      "SSL": "",
      "BTC": "$BTC",
      "BTC-Params": "",
      "ETC": "$ETC",
      "ETC-Params": "",
      "User": "",
      "API_ID": "",
      "API_Key": ""
    },
    "MiningPoolOvh": {
      "API_Key": "",
      "Password": "x",
      "VRM": "",
      "VRM-Params": "",
      "Worker": "$WorkerName",
      "Penalty": "0",
      "Algorithm": "",
      "ExcludeAlgorithm": "",
      "CoinName": "",
      "ExcludeCoin": "",
      "CoinSymbol": "",
      "ExcludeCoinSymbol": "",
      "MinerName": "",
      "ExcludeMinerName": "",
      "FocusWallet": "",
      "AllowZero": "0",
      "EnableAutoCoin": "0",
      "EnablePostBlockMining": "0",
      "CoinSymbolPBM": "",
      "DataWindow": "",
      "StatAverage": "",
      "StatAverageStable": "",
      "MaxMarginOfError": "100",
      "SwitchingHysteresis": "",
      "MaxAllowedLuck": "",
      "MaxTimeSinceLastBlock": "",
      "Region": "",
      "SSL": ""
    },
    "MiningRigRentals": {
      "EnableMining": "0",
      "UseWorkerName": "",
      "ExcludeWorkerName": "",
      "EnableAutoCreate": "0",
      "AutoCreateMinProfitPercent": "50",
      "AutoCreateMinCPUProfitBTC": "0.00001",
      "AutoCreateMaxMinHours": "24",
      "AutoUpdateMinPriceChangePercent": "3",
      "AutoCreateAlgorithm": "",
      "EnableAutoUpdate": "0",
      "EnableAutoBenchmark": "0",
      "EnableAutoExtend": "0",
      "AutoExtendTargetPercent": "100",
      "AutoExtendMaximumPercent": "30",
      "AutoBonusExtendForHours": "0",
      "AutoBonusExtendByHours": "0",
      "EnableUpdateTitle": "1",
      "EnableUpdateDescription": "1",
      "EnableAutoPrice": "1",
      "EnableMinimumPrice": "1",
      "EnablePowerDrawAddOnly": "0",
      "AutoPriceModifierPercent": "0",
      "EnableUpdatePriceModifier": "0",
      "UpdateInterval": "1h",
      "PriceBTC": "0",
      "PriceFactor": "1.8",
      "PriceFactorMin": "1.2",
      "PriceFactorDecayPercent": "0",
      "PriceFactorDecayTime": "4h",
      "PowerDrawFactor": "1.0",
      "MinHours": "3",
      "MaxHours": "48",
      "AllowExtensions": "1",
      "PriceCurrencies": "BTC",
      "Title": "%algorithmex% mining with RainbowMiner rig %rigid%",
      "Description": "Autostart mining with RainbowMiner (https://rbminer.net) on Windows. This rig is idle and will activate itself, as soon, as you rent it. %workername%",
      "ExtensionMessageTime": "2h",
      "ExtensionMessage": "Dear renter, your rental will end soon. Now would be a good time to extend the rental, if you are happy with the result.",
      "ProfitAverageTime": "Day",
      "PauseBetweenRentals": "10m",
      "UseHost": "",
      "Worker": "$WorkerName",
      "Penalty": "0",
      "Algorithm": "",
      "ExcludeAlgorithm": "",
      "CoinName": "",
      "ExcludeCoin": "",
      "CoinSymbol": "",
      "ExcludeCoinSymbol": "",
      "MinerName": "",
      "ExcludeMinerName": "",
      "FocusWallet": "",
      "AllowZero": "0",
      "EnableAutoCoin": "0",
      "EnablePostBlockMining": "0",
      "CoinSymbolPBM": "",
      "DataWindow": "",
      "StatAverage": "",
      "StatAverageStable": "",
      "MaxMarginOfError": "100",
      "SwitchingHysteresis": "",
      "MaxAllowedLuck": "",
      "MaxTimeSinceLastBlock": "",
      "Region": "",
      "SSL": "",
      "User": "",
      "API_Key": "",
      "API_Secret": ""
    },
    "Mintpond": {
      "FIRO": "",
      "FIRO-Params": "",
      "Worker": "$WorkerName",
      "Penalty": "0",
      "Algorithm": "",
      "ExcludeAlgorithm": "",
      "CoinName": "",
      "ExcludeCoin": "",
      "CoinSymbol": "",
      "ExcludeCoinSymbol": "",
      "MinerName": "",
      "ExcludeMinerName": "",
      "FocusWallet": "",
      "AllowZero": "0",
      "EnableAutoCoin": "0",
      "EnablePostBlockMining": "0",
      "CoinSymbolPBM": "",
      "DataWindow": "",
      "StatAverage": "",
      "StatAverageStable": "",
      "MaxMarginOfError": "100",
      "SwitchingHysteresis": "",
      "MaxAllowedLuck": "",
      "MaxTimeSinceLastBlock": "",
      "Region": "",
      "SSL": ""
    },
    "MoneroOcean": {
      "Password": "x",
      "XMR": "",
      "XMR-Params": "",
      "Worker": "$WorkerName",
      "Penalty": "0",
      "Algorithm": "",
      "ExcludeAlgorithm": "",
      "CoinName": "",
      "ExcludeCoin": "",
      "CoinSymbol": "",
      "ExcludeCoinSymbol": "",
      "MinerName": "",
      "ExcludeMinerName": "",
      "FocusWallet": "",
      "AllowZero": "0",
      "EnableAutoCoin": "0",
      "EnablePostBlockMining": "0",
      "CoinSymbolPBM": "",
      "DataWindow": "",
      "StatAverage": "",
      "StatAverageStable": "",
      "MaxMarginOfError": "100",
      "SwitchingHysteresis": "",
      "MaxAllowedLuck": "",
      "MaxTimeSinceLastBlock": "",
      "Region": "",
      "SSL": ""
    },
    "Nanopool": {
      "Email": "",
      "ETH": "",
      "ETH-Params": "",
      "Worker": "$WorkerName",
      "Penalty": "0",
      "Algorithm": "",
      "ExcludeAlgorithm": "",
      "CoinName": "",
      "ExcludeCoin": "",
      "CoinSymbol": "",
      "ExcludeCoinSymbol": "",
      "MinerName": "",
      "ExcludeMinerName": "",
      "FocusWallet": "",
      "AllowZero": "0",
      "EnableAutoCoin": "0",
      "EnablePostBlockMining": "0",
      "CoinSymbolPBM": "",
      "DataWindow": "",
      "StatAverage": "",
      "StatAverageStable": "",
      "MaxMarginOfError": "100",
      "SwitchingHysteresis": "",
      "MaxAllowedLuck": "",
      "MaxTimeSinceLastBlock": "",
      "Region": "",
      "SSL": ""
    },
    "NiceHash": {
      "StatAverage": "Minute_5",
      "MaxMarginOfError": "0",
      "EnableShowWallets": "0",
      "BTC-Params": "",
      "Worker": "$WorkerName",
      "Penalty": "0",
      "Algorithm": "",
      "ExcludeAlgorithm": "",
      "CoinName": "",
      "ExcludeCoin": "",
      "CoinSymbol": "",
      "ExcludeCoinSymbol": "",
      "MinerName": "",
      "ExcludeMinerName": "",
      "FocusWallet": "",
      "AllowZero": "0",
      "EnableAutoCoin": "0",
      "EnablePostBlockMining": "0",
      "CoinSymbolPBM": "",
      "DataWindow": "",
      "StatAverageStable": "",
      "SwitchingHysteresis": "",
      "MaxAllowedLuck": "",
      "MaxTimeSinceLastBlock": "",
      "Region": "",
      "SSL": "",
      "BTC": "",
      "OrganizationID": "",
      "API_Key": "",
      "API_Secret": ""
    },
    "NLpool": {
      "Penalty": 16,
      "BTC": "$Wallet",
      "BTC-Params": "",
      "Worker": "$WorkerName",
      "Algorithm": "",
      "ExcludeAlgorithm": "",
      "CoinName": "",
      "ExcludeCoin": "",
      "CoinSymbol": "",
      "ExcludeCoinSymbol": "",
      "MinerName": "",
      "ExcludeMinerName": "",
      "FocusWallet": "",
      "AllowZero": "0",
      "EnableAutoCoin": "0",
      "EnablePostBlockMining": "0",
      "CoinSymbolPBM": "",
      "DataWindow": "",
      "StatAverage": "",
      "StatAverageStable": "",
      "MaxMarginOfError": "100",
      "SwitchingHysteresis": "",
      "MaxAllowedLuck": "",
      "MaxTimeSinceLastBlock": "",
      "Region": "",
      "SSL": ""
    },
    "Poolin": {
      "ETH": "",
      "ETH-Params": "",
      "RVN": "",
      "RVN-Params": "",
      "Worker": "$WorkerName",
      "Penalty": "0",
      "Algorithm": "",
      "ExcludeAlgorithm": "",
      "CoinName": "",
      "ExcludeCoin": "",
      "CoinSymbol": "",
      "ExcludeCoinSymbol": "",
      "MinerName": "",
      "ExcludeMinerName": "",
      "FocusWallet": "",
      "AllowZero": "0",
      "EnableAutoCoin": "0",
      "EnablePostBlockMining": "0",
      "CoinSymbolPBM": "",
      "DataWindow": "",
      "StatAverage": "",
      "StatAverageStable": "",
      "MaxMarginOfError": "100",
      "SwitchingHysteresis": "",
      "MaxAllowedLuck": "",
      "MaxTimeSinceLastBlock": "",
      "Region": "",
      "SSL": ""
    },
    "Poolium": {
      "API_Key": "",
      "Password": "x",
      "VRM": "",
      "VRM-Params": "",
      "Worker": "$WorkerName",
      "Penalty": "0",
      "Algorithm": "",
      "ExcludeAlgorithm": "",
      "CoinName": "",
      "ExcludeCoin": "",
      "CoinSymbol": "",
      "ExcludeCoinSymbol": "",
      "MinerName": "",
      "ExcludeMinerName": "",
      "FocusWallet": "",
      "AllowZero": "0",
      "EnableAutoCoin": "0",
      "EnablePostBlockMining": "0",
      "CoinSymbolPBM": "",
      "DataWindow": "",
      "StatAverage": "",
      "StatAverageStable": "",
      "MaxMarginOfError": "100",
      "SwitchingHysteresis": "",
      "MaxAllowedLuck": "",
      "MaxTimeSinceLastBlock": "",
      "Region": "",
      "SSL": ""
    },
    "PoolSexy": {
      "DBIX": "",
      "DBIX-Params": "",
      "Worker": "$WorkerName",
      "Penalty": "0",
      "Algorithm": "",
      "ExcludeAlgorithm": "",
      "CoinName": "",
      "ExcludeCoin": "",
      "CoinSymbol": "",
      "ExcludeCoinSymbol": "",
      "MinerName": "",
      "ExcludeMinerName": "",
      "FocusWallet": "",
      "AllowZero": "0",
      "EnableAutoCoin": "0",
      "EnablePostBlockMining": "0",
      "CoinSymbolPBM": "",
      "DataWindow": "",
      "StatAverage": "",
      "StatAverageStable": "",
      "MaxMarginOfError": "100",
      "SwitchingHysteresis": "",
      "MaxAllowedLuck": "",
      "MaxTimeSinceLastBlock": "",
      "Region": "",
      "SSL": ""
    },
    "ProHashing": {
      "User": "",
      "API_Key": "",
      "AECurrency": "BTC",
      "EnableAPIKeyForMiners": "0",
      "Worker": "$WorkerName",
      "Penalty": "0",
      "Algorithm": "",
      "ExcludeAlgorithm": "",
      "CoinName": "",
      "ExcludeCoin": "",
      "CoinSymbol": "",
      "ExcludeCoinSymbol": "",
      "MinerName": "",
      "ExcludeMinerName": "",
      "FocusWallet": "",
      "AllowZero": "0",
      "EnableAutoCoin": "0",
      "EnablePostBlockMining": "0",
      "CoinSymbolPBM": "",
      "DataWindow": "",
      "StatAverage": "",
      "StatAverageStable": "",
      "MaxMarginOfError": "100",
      "SwitchingHysteresis": "",
      "MaxAllowedLuck": "",
      "MaxTimeSinceLastBlock": "",
      "Region": "",
      "SSL": ""
    },
    "ProHashingCoins": {
      "BTC": "$Wallet",
      "BTC-Params": "",
      "Worker": "$WorkerName",
      "Penalty": "0",
      "Algorithm": "",
      "ExcludeAlgorithm": "",
      "CoinName": "",
      "ExcludeCoin": "",
      "CoinSymbol": "",
      "ExcludeCoinSymbol": "",
      "MinerName": "",
      "ExcludeMinerName": "",
      "FocusWallet": "",
      "AllowZero": "0",
      "EnableAutoCoin": "0",
      "EnablePostBlockMining": "0",
      "CoinSymbolPBM": "",
      "DataWindow": "",
      "StatAverage": "",
      "StatAverageStable": "",
      "MaxMarginOfError": "100",
      "SwitchingHysteresis": "",
      "MaxAllowedLuck": "",
      "MaxTimeSinceLastBlock": "",
      "Region": "",
      "SSL": ""
    },
    "Ravenminer": {
      "RVN": "",
      "RVN-Params": "",
      "Worker": "$WorkerName",
      "Penalty": "0",
      "Algorithm": "",
      "ExcludeAlgorithm": "",
      "CoinName": "",
      "ExcludeCoin": "",
      "CoinSymbol": "",
      "ExcludeCoinSymbol": "",
      "MinerName": "",
      "ExcludeMinerName": "",
      "FocusWallet": "",
      "AllowZero": "0",
      "EnableAutoCoin": "0",
      "EnablePostBlockMining": "0",
      "CoinSymbolPBM": "",
      "DataWindow": "",
      "StatAverage": "",
      "StatAverageStable": "",
      "MaxMarginOfError": "100",
      "SwitchingHysteresis": "",
      "MaxAllowedLuck": "",
      "MaxTimeSinceLastBlock": "",
      "Region": "",
      "SSL": ""
    },
    "RPlant": {
      "BIN": "",
      "BIN-Params": "",
      "CPU": "",
      "CPU-Params": "",
      "MBC": "",
      "MBC-Params": "",
      "Worker": "$WorkerName",
      "Penalty": "0",
      "Algorithm": "",
      "ExcludeAlgorithm": "",
      "CoinName": "",
      "ExcludeCoin": "",
      "CoinSymbol": "",
      "ExcludeCoinSymbol": "",
      "MinerName": "",
      "ExcludeMinerName": "",
      "FocusWallet": "",
      "AllowZero": "0",
      "EnableAutoCoin": "0",
      "EnablePostBlockMining": "0",
      "CoinSymbolPBM": "",
      "DataWindow": "",
      "StatAverage": "",
      "StatAverageStable": "",
      "MaxMarginOfError": "100",
      "SwitchingHysteresis": "",
      "MaxAllowedLuck": "",
      "MaxTimeSinceLastBlock": "",
      "Region": "",
      "SSL": ""
    },
    "SoloPool": {
      "ETC": "",
      "ETC-Params": "",
      "ETH": "",
      "ETH-Params": "",
      "SAFE": "",
      "SAFE-Params": "",
      "SEL": "",
      "SEL-Params": "",
      "XMR": "",
      "XMR-Params": "",
      "XWP": "",
      "XWP-Params": "",
      "ZERO": "",
      "ZERO-Params": "",
      "Worker": "$WorkerName",
      "Penalty": "0",
      "Algorithm": "",
      "ExcludeAlgorithm": "",
      "CoinName": "",
      "ExcludeCoin": "",
      "CoinSymbol": "",
      "ExcludeCoinSymbol": "",
      "MinerName": "",
      "ExcludeMinerName": "",
      "FocusWallet": "",
      "AllowZero": "0",
      "EnableAutoCoin": "0",
      "EnablePostBlockMining": "0",
      "CoinSymbolPBM": "",
      "DataWindow": "",
      "StatAverage": "",
      "StatAverageStable": "",
      "MaxMarginOfError": "100",
      "SwitchingHysteresis": "",
      "MaxAllowedLuck": "",
      "MaxTimeSinceLastBlock": "",
      "Region": "",
      "SSL": ""
    },
    "SparkPool": {
      "ETH": "",
      "ETH-Params": "",
      "CKB": "",
      "CKB-Params": "",
      "BEAM": "",
      "BEAM-Params": "",
      "Worker": "$WorkerName",
      "Penalty": "0",
      "Algorithm": "",
      "ExcludeAlgorithm": "",
      "CoinName": "",
      "ExcludeCoin": "",
      "CoinSymbol": "",
      "ExcludeCoinSymbol": "",
      "MinerName": "",
      "ExcludeMinerName": "",
      "FocusWallet": "",
      "AllowZero": "0",
      "EnableAutoCoin": "0",
      "EnablePostBlockMining": "0",
      "CoinSymbolPBM": "",
      "DataWindow": "",
      "StatAverage": "",
      "StatAverageStable": "",
      "MaxMarginOfError": "100",
      "SwitchingHysteresis": "",
      "MaxAllowedLuck": "",
      "MaxTimeSinceLastBlock": "",
      "Region": "",
      "SSL": ""
    },
    "Sunpool": {
      "GRIMM": "",
      "GRIMM-Params": "",
      "BEAM": "",
      "BEAM-Params": "",
      "ATOMI": "",
      "ATOMI-Params": "",
      "Worker": "$WorkerName",
      "Penalty": "0",
      "Algorithm": "",
      "ExcludeAlgorithm": "",
      "CoinName": "",
      "ExcludeCoin": "",
      "CoinSymbol": "",
      "ExcludeCoinSymbol": "",
      "MinerName": "",
      "ExcludeMinerName": "",
      "FocusWallet": "",
      "AllowZero": "0",
      "EnableAutoCoin": "0",
      "EnablePostBlockMining": "0",
      "CoinSymbolPBM": "",
      "DataWindow": "",
      "StatAverage": "",
      "StatAverageStable": "",
      "MaxMarginOfError": "100",
      "SwitchingHysteresis": "",
      "MaxAllowedLuck": "",
      "MaxTimeSinceLastBlock": "",
      "Region": "",
      "SSL": ""
    },
    "SupportXmr": {
      "XMR": "",
      "XMR-Params": "",
      "Worker": "$WorkerName",
      "Penalty": "0",
      "Algorithm": "",
      "ExcludeAlgorithm": "",
      "CoinName": "",
      "ExcludeCoin": "",
      "CoinSymbol": "",
      "ExcludeCoinSymbol": "",
      "MinerName": "",
      "ExcludeMinerName": "",
      "FocusWallet": "",
      "AllowZero": "0",
      "EnableAutoCoin": "0",
      "EnablePostBlockMining": "0",
      "CoinSymbolPBM": "",
      "DataWindow": "",
      "StatAverage": "",
      "StatAverageStable": "",
      "MaxMarginOfError": "100",
      "SwitchingHysteresis": "",
      "MaxAllowedLuck": "",
      "MaxTimeSinceLastBlock": "",
      "Region": "",
      "SSL": ""
    },
    "SuprNova": {
      "BTG": "",
      "BTG-Params": "",
      "Worker": "$WorkerName",
      "Penalty": "0",
      "Algorithm": "",
      "ExcludeAlgorithm": "",
      "CoinName": "",
      "ExcludeCoin": "",
      "CoinSymbol": "",
      "ExcludeCoinSymbol": "",
      "MinerName": "",
      "ExcludeMinerName": "",
      "FocusWallet": "",
      "AllowZero": "0",
      "EnableAutoCoin": "0",
      "EnablePostBlockMining": "0",
      "CoinSymbolPBM": "",
      "DataWindow": "",
      "StatAverage": "",
      "StatAverageStable": "",
      "MaxMarginOfError": "100",
      "SwitchingHysteresis": "",
      "MaxAllowedLuck": "",
      "MaxTimeSinceLastBlock": "",
      "Region": "",
      "SSL": ""
    },
    "Tecracoin": {
      "TCR": "",
      "TCR-Params": "",
      "Worker": "$WorkerName",
      "Penalty": "0",
      "Algorithm": "",
      "ExcludeAlgorithm": "",
      "CoinName": "",
      "ExcludeCoin": "",
      "CoinSymbol": "",
      "ExcludeCoinSymbol": "",
      "MinerName": "",
      "ExcludeMinerName": "",
      "FocusWallet": "",
      "AllowZero": "0",
      "EnableAutoCoin": "0",
      "EnablePostBlockMining": "0",
      "CoinSymbolPBM": "",
      "DataWindow": "",
      "StatAverage": "",
      "StatAverageStable": "",
      "MaxMarginOfError": "100",
      "SwitchingHysteresis": "",
      "MaxAllowedLuck": "",
      "MaxTimeSinceLastBlock": "",
      "Region": "",
      "SSL": ""
    },
    "unMineable": {
      "BTC": "$Wallet",
      "BTC-Params": "",
      "BTT": "",
      "BTT-Params": "",
      "ETH": "",
      "ETH-Params": "",
      "TRX": "",
      "TRX-Params": "",
      "UNI": "",
      "UNI-Params": "",
      "XTZ": "",
      "XTZ-Params": "",
      "YFI": "",
      "YFI-Params": "",
      "Worker": "$WorkerName",
      "Penalty": "0",
      "Algorithm": "",
      "ExcludeAlgorithm": "",
      "CoinName": "",
      "ExcludeCoin": "",
      "CoinSymbol": "",
      "ExcludeCoinSymbol": "",
      "MinerName": "",
      "ExcludeMinerName": "",
      "FocusWallet": "",
      "AllowZero": "0",
      "EnableAutoCoin": "0",
      "EnablePostBlockMining": "0",
      "CoinSymbolPBM": "",
      "DataWindow": "",
      "StatAverage": "",
      "StatAverageStable": "",
      "MaxMarginOfError": "100",
      "SwitchingHysteresis": "",
      "MaxAllowedLuck": "",
      "MaxTimeSinceLastBlock": "",
      "Region": "",
      "SSL": ""
    },
    "UUpool": {
      "VOLLAR": "",
      "VOLLAR-Params": "",
      "Worker": "$WorkerName",
      "Penalty": "0",
      "Algorithm": "",
      "ExcludeAlgorithm": "",
      "CoinName": "",
      "ExcludeCoin": "",
      "CoinSymbol": "",
      "ExcludeCoinSymbol": "",
      "MinerName": "",
      "ExcludeMinerName": "",
      "FocusWallet": "",
      "AllowZero": "0",
      "EnableAutoCoin": "0",
      "EnablePostBlockMining": "0",
      "CoinSymbolPBM": "",
      "DataWindow": "",
      "StatAverage": "",
      "StatAverageStable": "",
      "MaxMarginOfError": "100",
      "SwitchingHysteresis": "",
      "MaxAllowedLuck": "",
      "MaxTimeSinceLastBlock": "",
      "Region": "",
      "SSL": ""
    },
    "WhatToMine": {
      "Worker": "$WorkerName",
      "Penalty": "0",
      "Algorithm": "",
      "ExcludeAlgorithm": "",
      "CoinName": "",
      "ExcludeCoin": "",
      "CoinSymbol": "",
      "ExcludeCoinSymbol": "",
      "MinerName": "",
      "ExcludeMinerName": "",
      "FocusWallet": "",
      "AllowZero": "0",
      "EnableAutoCoin": "0",
      "EnablePostBlockMining": "0",
      "CoinSymbolPBM": "",
      "DataWindow": "",
      "StatAverage": "",
      "StatAverageStable": "",
      "MaxMarginOfError": "100",
      "SwitchingHysteresis": "",
      "MaxAllowedLuck": "",
      "MaxTimeSinceLastBlock": "",
      "Region": "",
      "SSL": ""
    },
    "WoolyPooly": {
      "CFX": "",
      "CFX-Params": "",
      "ETH": "",
      "ETH-Params": "",
      "VEIL": "",
      "VEIL-Params": "",
      "Worker": "$WorkerName",
      "Penalty": "0",
      "Algorithm": "",
      "ExcludeAlgorithm": "",
      "CoinName": "",
      "ExcludeCoin": "",
      "CoinSymbol": "",
      "ExcludeCoinSymbol": "",
      "MinerName": "",
      "ExcludeMinerName": "",
      "FocusWallet": "",
      "AllowZero": "0",
      "EnableAutoCoin": "0",
      "EnablePostBlockMining": "0",
      "CoinSymbolPBM": "",
      "DataWindow": "",
      "StatAverage": "",
      "StatAverageStable": "",
      "MaxMarginOfError": "100",
      "SwitchingHysteresis": "",
      "MaxAllowedLuck": "",
      "MaxTimeSinceLastBlock": "",
      "Region": "",
      "SSL": ""
    },
    "WoolyPoolySolo": {
      "CFX": "",
      "CFX-Params": "",
      "ETH": "",
      "ETH-Params": "",
      "VEIL": "",
      "VEIL-Params": "",
      "Worker": "$WorkerName",
      "Penalty": "0",
      "Algorithm": "",
      "ExcludeAlgorithm": "",
      "CoinName": "",
      "ExcludeCoin": "",
      "CoinSymbol": "",
      "ExcludeCoinSymbol": "",
      "MinerName": "",
      "ExcludeMinerName": "",
      "FocusWallet": "",
      "AllowZero": "0",
      "EnableAutoCoin": "0",
      "EnablePostBlockMining": "0",
      "CoinSymbolPBM": "",
      "DataWindow": "",
      "StatAverage": "",
      "StatAverageStable": "",
      "MaxMarginOfError": "100",
      "SwitchingHysteresis": "",
      "MaxAllowedLuck": "",
      "MaxTimeSinceLastBlock": "",
      "Region": "",
      "SSL": ""
    },
    "ZergPool": {
      "AECurrency": "ETC",
      "Penalty": "12",
      "Worker": "$WorkerName",
      "DataWindow": "",
      "StatAverage": "",
      "StatAverageStable": "",
      "MaxMarginOfError": "100",
      "SwitchingHysteresis": "",
      "MaxAllowedLuck": "",
      "MaxTimeSinceLastBlock": "",
      "Region": "",
      "SSL": "",
      "ETC": "$ETC",
      "ETC-Params": "",
      "BTC": "",
      "BTC-Params": "",
      "Algorithm": "",
      "ExcludeAlgorithm": "",
      "CoinName": "",
      "ExcludeCoin": "",
      "CoinSymbol": "",
      "ExcludeCoinSymbol": "",
      "CoinSymbolPBM": "",
      "MinerName": "",
      "ExcludeMinerName": "",
      "EnableAutoCoin": "0",
      "EnablePostBlockMining": "0",
      "FocusWallet": "",
      "AllowZero": "0"
    },
    "ZergPoolCoins": {
      "AECurrency": "",
      "Penalty": 12,
      "BTC": "$Wallet",
      "BTC-Params": "",
      "Worker": "$WorkerName",
      "Algorithm": "",
      "ExcludeAlgorithm": "",
      "CoinName": "",
      "ExcludeCoin": "",
      "CoinSymbol": "",
      "ExcludeCoinSymbol": "",
      "MinerName": "",
      "ExcludeMinerName": "",
      "FocusWallet": "",
      "AllowZero": "0",
      "EnableAutoCoin": "0",
      "EnablePostBlockMining": "0",
      "CoinSymbolPBM": "",
      "DataWindow": "",
      "StatAverage": "",
      "StatAverageStable": "",
      "MaxMarginOfError": "100",
      "SwitchingHysteresis": "",
      "MaxAllowedLuck": "",
      "MaxTimeSinceLastBlock": "",
      "Region": "",
      "SSL": ""
    },
    "ZergPoolCoinsParty": {
      "AllowZero": "1",
      "PartyPassword": "",
      "AECurrency": "",
      "Penalty": 12,
      "BTC": "$Wallet",
      "BTC-Params": "",
      "Worker": "$WorkerName",
      "Algorithm": "",
      "ExcludeAlgorithm": "",
      "CoinName": "",
      "ExcludeCoin": "",
      "CoinSymbol": "",
      "ExcludeCoinSymbol": "",
      "MinerName": "",
      "ExcludeMinerName": "",
      "FocusWallet": "",
      "EnableAutoCoin": "0",
      "EnablePostBlockMining": "0",
      "CoinSymbolPBM": "",
      "DataWindow": "",
      "StatAverage": "",
      "StatAverageStable": "",
      "MaxMarginOfError": "100",
      "SwitchingHysteresis": "",
      "MaxAllowedLuck": "",
      "MaxTimeSinceLastBlock": "",
      "Region": "",
      "SSL": ""
    },
    "ZergPoolCoinsSolo": {
      "AllowZero": "1",
      "AECurrency": "",
      "Penalty": 12,
      "BTC": "$Wallet",
      "BTC-Params": "",
      "Worker": "$WorkerName",
      "Algorithm": "",
      "ExcludeAlgorithm": "",
      "CoinName": "",
      "ExcludeCoin": "",
      "CoinSymbol": "",
      "ExcludeCoinSymbol": "",
      "MinerName": "",
      "ExcludeMinerName": "",
      "FocusWallet": "",
      "EnableAutoCoin": "0",
      "EnablePostBlockMining": "0",
      "CoinSymbolPBM": "",
      "DataWindow": "",
      "StatAverage": "",
      "StatAverageStable": "",
      "MaxMarginOfError": "100",
      "SwitchingHysteresis": "",
      "MaxAllowedLuck": "",
      "MaxTimeSinceLastBlock": "",
      "Region": "",
      "SSL": ""
    },
    "ZergPoolParty": {
      "AllowZero": "1",
      "PartyPassword": "",
      "AECurrency": "",
      "Penalty": 12,
      "BTC": "$Wallet",
      "BTC-Params": "",
      "Worker": "$WorkerName",
      "Algorithm": "",
      "ExcludeAlgorithm": "",
      "CoinName": "",
      "ExcludeCoin": "",
      "CoinSymbol": "",
      "ExcludeCoinSymbol": "",
      "MinerName": "",
      "ExcludeMinerName": "",
      "FocusWallet": "",
      "EnableAutoCoin": "0",
      "EnablePostBlockMining": "0",
      "CoinSymbolPBM": "",
      "DataWindow": "",
      "StatAverage": "",
      "StatAverageStable": "",
      "MaxMarginOfError": "100",
      "SwitchingHysteresis": "",
      "MaxAllowedLuck": "",
      "MaxTimeSinceLastBlock": "",
      "Region": "",
      "SSL": ""
    },
    "ZergPoolSolo": {
      "AllowZero": "1",
      "Penalty": 12,
      "BTC": "$Wallet",
      "BTC-Params": "",
      "Worker": "$WorkerName",
      "Algorithm": "",
      "ExcludeAlgorithm": "",
      "CoinName": "",
      "ExcludeCoin": "",
      "CoinSymbol": "",
      "ExcludeCoinSymbol": "",
      "MinerName": "",
      "ExcludeMinerName": "",
      "FocusWallet": "",
      "EnableAutoCoin": "0",
      "EnablePostBlockMining": "0",
      "CoinSymbolPBM": "",
      "DataWindow": "",
      "StatAverage": "",
      "StatAverageStable": "",
      "MaxMarginOfError": "100",
      "SwitchingHysteresis": "",
      "MaxAllowedLuck": "",
      "MaxTimeSinceLastBlock": "",
      "Region": "",
      "SSL": ""
    },
    "Zpool": {
      "AECurrency": "",
      "Penalty": 16,
      "BTC": "$Wallet",
      "BTC-Params": "",
      "Worker": "$WorkerName",
      "Algorithm": "",
      "ExcludeAlgorithm": "",
      "CoinName": "",
      "ExcludeCoin": "",
      "CoinSymbol": "",
      "ExcludeCoinSymbol": "",
      "MinerName": "",
      "ExcludeMinerName": "",
      "FocusWallet": "",
      "AllowZero": "0",
      "EnableAutoCoin": "0",
      "EnablePostBlockMining": "0",
      "CoinSymbolPBM": "",
      "DataWindow": "",
      "StatAverage": "",
      "StatAverageStable": "",
      "MaxMarginOfError": "100",
      "SwitchingHysteresis": "",
      "MaxAllowedLuck": "",
      "MaxTimeSinceLastBlock": "",
      "Region": "",
      "SSL": ""
    },
    "ZpoolCoins": {
      "AECurrency": "",
      "Penalty": 16,
      "BTC": "$Wallet",
      "BTC-Params": "",
      "Worker": "$WorkerName",
      "Algorithm": "",
      "ExcludeAlgorithm": "",
      "CoinName": "",
      "ExcludeCoin": "",
      "CoinSymbol": "",
      "ExcludeCoinSymbol": "",
      "MinerName": "",
      "ExcludeMinerName": "",
      "FocusWallet": "",
      "AllowZero": "0",
      "EnableAutoCoin": "0",
      "EnablePostBlockMining": "0",
      "CoinSymbolPBM": "",
      "DataWindow": "",
      "StatAverage": "",
      "StatAverageStable": "",
      "MaxMarginOfError": "100",
      "SwitchingHysteresis": "",
      "MaxAllowedLuck": "",
      "MaxTimeSinceLastBlock": "",
      "Region": "",
      "SSL": ""
    }
  },
  "Coins": {
    "BTC": {
      "Wallet": "",
      "Penalty": "0",
      "MinHashrate": "0",
      "MinWorkers": "0",
      "MaxTimeToFind": "0",
      "PostBlockMining": "0",
      "MinProfitPercent": "0",
      "EnableAutoPool": "1",
      "Comment": ""
    },
    "ETC": {
      "Wallet": "0x9ffded4cf417cbf75ed73e4bbe3ee7df30d9ec46",
      "Penalty": "0",
      "MinHashrate": "0",
      "MinWorkers": "0",
      "MaxTimeToFind": "0",
      "PostBlockMining": "0",
      "MinProfitPercent": "0",
      "EnableAutoPool": "1",
      "Comment": ""
    },
    "ETH": {
      "Wallet": "",
      "Penalty": "0",
      "MinHashrate": "",
      "MinWorkers": "",
      "MaxTimeToFind": "",
      "PostBlockMining": "",
      "MinProfitPercent": "0",
      "EnableAutoPool": "1",
      "Comment": ""
    },
    "RVN": {
      "Wallet": "",
      "Penalty": "0",
      "MinHashrate": "0",
      "MinWorkers": "0",
      "MaxTimeToFind": "0",
      "PostBlockMining": "0",
      "MinProfitPercent": "0",
      "EnableAutoPool": "0",
      "Comment": ""
    },
    "XMR": {
      "Wallet": "",
      "Penalty": "0",
      "MinHashrate": "0",
      "MinWorkers": "0",
      "MaxTimeToFind": "0",
      "PostBlockMining": "0",
      "MinProfitPercent": "0",
      "EnableAutoPool": "0",
      "Comment": ""
    },
    "XWP": {
      "Wallet": "",
      "Penalty": "0",
      "MinHashrate": "0",
      "MinWorkers": "0",
      "MaxTimeToFind": "0",
      "PostBlockMining": "0",
      "MinProfitPercent": "0",
      "EnableAutoPool": "0",
      "Comment": ""
    },
    "VRSC": {
      "Wallet": "",
      "Penalty": "0",
      "MinHashrate": "0",
      "MinWorkers": "0",
      "MaxTimeToFind": "0",
      "PostBlockMining": "0",
      "MinProfitPercent": "0",
      "EnableAutoPool": "0",
      "Comment": ""
    }
  },
  "OCProfiles": {
    "Profile1": {
      "PowerLimit": 0,
      "ThermalLimit": 0,
      "MemoryClockBoost": "*",
      "CoreClockBoost": "*",
      "LockVoltagePoint": "*",
      "PreCmd": "",
      "PreCmdArguments": "",
      "PostCmd": "",
      "PostCmdArguments": ""
    },
    "Profile2": {
      "PowerLimit": 0,
      "ThermalLimit": 0,
      "MemoryClockBoost": "*",
      "CoreClockBoost": "*",
      "LockVoltagePoint": "*",
      "PreCmd": "",
      "PreCmdArguments": "",
      "PostCmd": "",
      "PostCmdArguments": ""
    },
    "Profile3": {
      "PowerLimit": 0,
      "ThermalLimit": 0,
      "MemoryClockBoost": "*",
      "CoreClockBoost": "*",
      "LockVoltagePoint": "*",
      "PreCmd": "",
      "PreCmdArguments": "",
      "PostCmd": "",
      "PostCmdArguments": ""
    },
    "Profile4": {
      "PowerLimit": 0,
      "ThermalLimit": 0,
      "MemoryClockBoost": "*",
      "CoreClockBoost": "*",
      "LockVoltagePoint": "*",
      "PreCmd": "",
      "PreCmdArguments": "",
      "PostCmd": "",
      "PostCmdArguments": ""
    },
    "Profile5": {
      "PowerLimit": 0,
      "ThermalLimit": 0,
      "MemoryClockBoost": "*",
      "CoreClockBoost": "*",
      "LockVoltagePoint": "*",
      "PreCmd": "",
      "PreCmdArguments": "",
      "PostCmd": "",
      "PostCmdArguments": ""
    },
    "Profile6": {
      "PowerLimit": 0,
      "ThermalLimit": 0,
      "MemoryClockBoost": "*",
      "CoreClockBoost": "*",
      "LockVoltagePoint": "*",
      "PreCmd": "",
      "PreCmdArguments": "",
      "PostCmd": "",
      "PostCmdArguments": ""
    },
    "Profile7": {
      "PowerLimit": 0,
      "ThermalLimit": 0,
      "MemoryClockBoost": "*",
      "CoreClockBoost": "*",
      "LockVoltagePoint": "*",
      "PreCmd": "",
      "PreCmdArguments": "",
      "PostCmd": "",
      "PostCmdArguments": ""
    }
  },
  "Scheduler": [
    {
      "Name": "All",
      "DayOfWeek": "*",
      "From": "00:00",
      "To": "23:59",
      "PowerPrice": "",
      "Enable": "0",
      "Pause": "0",
      "EnableUpdate": "0",
      "EnableMiningHeatControl": "",
      "MiningHeatControl": "",
      "Algorithm": "",
      "ExcludeAlgorithm": "",
      "CoinSymbol": "",
      "ExcludeCoinSymbol": ""
    },
    {
      "Name": "Sunday",
      "DayOfWeek": "0",
      "From": "00:00",
      "To": "23:59",
      "PowerPrice": "",
      "Enable": "0",
      "Pause": "0",
      "EnableUpdate": "0",
      "EnableMiningHeatControl": "",
      "MiningHeatControl": "",
      "Algorithm": "",
      "ExcludeAlgorithm": "",
      "CoinSymbol": "",
      "ExcludeCoinSymbol": ""
    },
    {
      "Name": "Monday",
      "DayOfWeek": "1",
      "From": "00:00",
      "To": "23:59",
      "PowerPrice": "",
      "Enable": "0",
      "Pause": "0",
      "EnableUpdate": "0",
      "EnableMiningHeatControl": "",
      "MiningHeatControl": "",
      "Algorithm": "",
      "ExcludeAlgorithm": "",
      "CoinSymbol": "",
      "ExcludeCoinSymbol": ""
    },
    {
      "Name": "Tuesday",
      "DayOfWeek": "2",
      "From": "00:00",
      "To": "23:59",
      "PowerPrice": "",
      "Enable": "0",
      "Pause": "0",
      "EnableUpdate": "0",
      "EnableMiningHeatControl": "",
      "MiningHeatControl": "",
      "Algorithm": "",
      "ExcludeAlgorithm": "",
      "CoinSymbol": "",
      "ExcludeCoinSymbol": ""
    },
    {
      "Name": "Wednesday",
      "DayOfWeek": "3",
      "From": "00:00",
      "To": "23:59",
      "PowerPrice": "",
      "Enable": "0",
      "Pause": "0",
      "EnableUpdate": "0",
      "EnableMiningHeatControl": "",
      "MiningHeatControl": "",
      "Algorithm": "",
      "ExcludeAlgorithm": "",
      "CoinSymbol": "",
      "ExcludeCoinSymbol": ""
    },
    {
      "Name": "Thursday",
      "DayOfWeek": "4",
      "From": "00:00",
      "To": "23:59",
      "PowerPrice": "",
      "Enable": "0",
      "Pause": "0",
      "EnableUpdate": "0",
      "EnableMiningHeatControl": "",
      "MiningHeatControl": "",
      "Algorithm": "",
      "ExcludeAlgorithm": "",
      "CoinSymbol": "",
      "ExcludeCoinSymbol": ""
    },
    {
      "Name": "Friday",
      "DayOfWeek": "5",
      "From": "00:00",
      "To": "23:59",
      "PowerPrice": "",
      "Enable": "0",
      "Pause": "0",
      "EnableUpdate": "0",
      "EnableMiningHeatControl": "",
      "MiningHeatControl": "",
      "Algorithm": "",
      "ExcludeAlgorithm": "",
      "CoinSymbol": "",
      "ExcludeCoinSymbol": ""
    },
    {
      "Name": "Saturday",
      "DayOfWeek": "6",
      "From": "00:00",
      "To": "23:59",
      "PowerPrice": "",
      "Enable": "0",
      "Pause": "0",
      "EnableUpdate": "0",
      "EnableMiningHeatControl": "",
      "MiningHeatControl": "",
      "Algorithm": "",
      "ExcludeAlgorithm": "",
      "CoinSymbol": "",
      "ExcludeCoinSymbol": ""
    }
  ],
  "Userpools": [
    {
      "Enable": "0",
      "Name": "",
      "PoolFee": "0",
      "Algorithm": "",
      "CoinName": "",
      "CoinSymbol": "",
      "Currency": "",
      "Protocol": "stratum+tcp",
      "Host": "stratum.userpool.com",
      "Port": "1495",
      "User": "$Wallet.$WorkerName",
      "Pass": "x",
      "Region": "US",
      "SSL": "0",
      "EthMode": ""
    },
    {
      "Enable": "0",
      "Name": "",
      "PoolFee": "0",
      "Algorithm": "",
      "CoinName": "",
      "CoinSymbol": "",
      "Currency": "",
      "Protocol": "stratum+tcp",
      "Host": "stratum.userpool.com",
      "Port": "1495",
      "User": "$Wallet.$WorkerName",
      "Pass": "x",
      "Region": "US",
      "SSL": "0",
      "EthMode": ""
    },
    {
      "Enable": "0",
      "Name": "",
      "PoolFee": "0",
      "Algorithm": "",
      "CoinName": "",
      "CoinSymbol": "",
      "Currency": "",
      "Protocol": "stratum+tcp",
      "Host": "stratum.userpool.com",
      "Port": "1495",
      "User": "$Wallet.$WorkerName",
      "Pass": "x",
      "Region": "US",
      "SSL": "0",
      "EthMode": ""
    },
    {
      "Enable": "0",
      "Name": "",
      "PoolFee": "0",
      "Algorithm": "",
      "CoinName": "",
      "CoinSymbol": "",
      "Currency": "",
      "Protocol": "stratum+tcp",
      "Host": "stratum.userpool.com",
      "Port": "1495",
      "User": "$Wallet.$WorkerName",
      "Pass": "x",
      "Region": "US",
      "SSL": "0",
      "EthMode": ""
    },
    {
      "Enable": "0",
      "Name": "",
      "PoolFee": "0",
      "Algorithm": "",
      "CoinName": "",
      "CoinSymbol": "",
      "Currency": "",
      "Protocol": "stratum+tcp",
      "Host": "stratum.userpool.com",
      "Port": "1495",
      "User": "$Wallet.$WorkerName",
      "Pass": "x",
      "Region": "US",
      "SSL": "0",
      "EthMode": ""
    }
  ]
}